{
  "spider": "./ttkx.jar",
  "wallpaper": "https://tuapi.eees.cc/api.php?category=fengjing&type=302",
  "lives": [
    {
      "name": "live",
      "type": 0,
      "url": "./lib/kx2024.txt",
      "epg": "http://epg.112114.eu.org/?ch={name}&date={date}",
      "logo": "https://epg.112114.xyz/bingimg/logo/{name}.png"
    }
  ],
  "sites": [
    {
      "key": "豆瓣",
      "name": "🌟【七星影视】🌟",
      "type": 3,
      "api": "./lib/drpy2.min.js",
      "searchable": 0,
      "quickSearch": 0,
      "filterable": 0,
      "ext": "./lib/douban.js"
    },
    {
      "key": "csp_JianPian",
      "name": "七星🌟┃荐片官",
      "type": 3,
      "api": "csp_JianPian",
      "playerType": 1,
      "searchable": 1,
      "quickSearch": 1,
      "filterable": 1,
      "ext": "https://oiuzy.haitu33.com"
    },
    {
      "key": "爱奇异",
      "name": "七星🌟┃奇艺官",
      "type": 3,
      "api": "./lib/drpy2.min.js",
      "ext": "./lib/aiqiyi.js"
    },
    {
      "key": "优酷",
      "name": "七星🌟┃优酷官",
      "type": 3,
      "api": "./lib/drpy2.min.js",
      "ext": "./lib/youku.js"
    },
    {
      "key": "腾讯",
      "name": "七星🌟┃腾讯官",
      "type": 3,
      "api": "./lib/drpy2.min.js",
      "ext": "./lib/tengxun.js"
    },
    {
      "key": "芒果",
      "name": "七星🌟┃芒果官",
      "type": 3,
      "api": "./lib/drpy2.min.js",
      "ext": "./lib/mangguo.js"
    },
    {
      "key": "搜狗",
      "name": "七星🌟┃搜狗官",
      "type": 3,
      "api": "./lib/drpy2.min.js",
      "ext": "./lib/caigou.js"
    },
    {
      "key": "360影视",
      "name": "七星🌟┃叁六零",
      "type": 3,
      "api": "csp_SP360",
      "searchable": 1,
      "quickSearch": 1,
      "filterable": 1,
      "changeable": 0
    },
    {
      "key": "酷看",
      "name": "七星🌟┃秒播⒈",
      "type": 3,
      "api": "csp_Kkys",
      "timeout": 15,
      "searchable": 1,
      "quickSearch": 1,
      "changeable": 1
    },
    {
      "key": "原创",
      "name": "七星🌟┃秒播⒉",
      "type": 3,
      "api": "csp_YCyz",
      "timeout": 15,
      "searchable": 1,
      "quickSearch": 1,
      "changeable": 1
    },
    {
      "key": "苹果",
      "name": "七星🌟┃秒播⒊",
      "type": 3,
      "api": "csp_LiteApple",
      "searchable": 1,
      "quickSearch": 1,
      "changeable": 1
    },
    {
      "key": "白嫖",
      "name": "七星🌟┃秒播⒋",
      "type": 3,
      "api": "csp_BaiPiao",
      "playerType": 2,
      "searchable": 1,
      "quickSearch": 1,
      "changeable": 1,
      "ext": "https://www.baipiaoys.com:9092/"
    },
        {
      "key": "csp_五五",
      "name": "七星🌟┃秒播⒌",
      "type": 3,
      "api": "csp_XBPQ",
      "searchable": 1,
      "quickSearch": 1,
      "filterable": 1,
      "ext": "./lib/55.json"
    },
        {
      "key": "兄弟影视",
      "name": "七星🌟┃秒播⒍",
      "type": 3,
      "api": "csp_XBPQ",
      "searchable": 1,
      "quickSearch": 1,
      "filterable": 1,
      "ext": "./lib/兄弟影视.json"
    },
        {
      "key": "厂长",
      "name": "七星🌟┃秒播⒎",
      "type": 3,
      "api": "csp_NewCz",
      "timeout": 15,
      "playerType": 2,
      "searchable": 1,
      "quickSearch": 1,
      "changeable": 1,
      "ext": "https://www.czys.top/"
    },
        {
      "key": "csp_xBPQ_小茶狐",
      "name": "七星🌟┃秒播⒏",
      "type": 3,
      "api": "csp_XBPQ",
      "searchable": 1,
      "quickSearch": 1,
      "filterable": 1,
      "ext": "./lib/小茶狐.json"
    },
        {
      "key": "红狐狸影院",
      "name": "七星🌟┃秒播⒐",
      "type": 3,
      "api": "csp_XBPQ",
      "ext": {
        "简介": "+line-height: 20px;\">&&</div>",
        "分类url": "https://honghuli.com/leibiao/{cateId}-{area}--{class}-----{catePg}---{year}.html",
        "分类": "短剧$35#电影$1#连续剧$2#动漫$4#综艺$3"
      }
    },
        {
      "key": "南瓜",
      "name": "七星🌟┃秒播⒑",
      "type": 3,
      "api": "csp_NanGua",
      "timeout": 15,
      "playerType": 2,
      "searchable": 1,
      "quickSearch": 1,
      "changeable": 1
    },
        {
      "key": "凯奇追剧",
      "name": "七星🌟┃秒播⒒",
      "type": 3,
      "api": "csp_XBPQ",
      "ext": {
        "简介": "+hl-content-text\">&&</span>",
        "分类url": "https://www.kqyy.tv/vodshow/area/{area}/class/{class}/id/{cateId}/page/{catePg}/year/{year}.html",
        "分类": "电影$dianying#连续剧$lianxuju#动漫$dongman#综艺$zongyi#短剧$duanshipin"
      }
    },
        {
      "key": "比特",
      "name": "七星🌟┃秒播⒓",
      "type": 3,
      "api": "csp_Bttwoo",
      "searchable": 1,
      "quickSearch": 1,
      "changeable": 1
    },
        {
      "key": "VIP影视",
      "name": "七星🌟┃秒播⒔",
      "type": 3,
      "api": "csp_XPath",
      "searchable": 1,
      "quickSearch": 1,
      "filterable": 0,
      "ext": "./lib/VIPyingshi.json"
    },
        {
      "key": "csp_XYQBiu_骚火VIP",
      "name": "七星🌟┃秒播⒕",
      "type": 3,
      "api": "csp_XBPQ",
      "searchable": 1,
      "quickSearch": 1,
      "filterable": 1,
      "ext": "./lib/shyyVIP.json"
    },
        {
      "key": "奈飞影视",
      "name": "七星🌟┃秒播⒖",
      "type": 3,
      "api": "csp_XYQHiker",
      "searchable": 1,
      "quickSearch": 1,
      "filterable": 1,
      "ext": "./lib/ynfys.json"
    },
        {
      "key": "Lib",
      "name": "七星🌟┃秒播⒗",
      "type": 3,
      "api": "csp_Libvio",
      "timeout": 15,
      "searchable": 1,
      "quickSearch": 1,
      "changeable": 1,
      "ext": "https://www.libvio.pw/"
    },
       {
      "key": "玩偶哥哥",
      "name": "七星🌟┃玩偶哥",
      "type": 3,
      "api": "csp_XYQHikerAL",
      "searchable": 1,
      "quickSearch": 1,
      "filterable": 1,
      "ext": "./lib/玩偶哥哥.json"
    },
            {
      "key": "玩我哥哥",
      "name": "七星🌟┃玩我哥",
      "type": 3,
      "api": "csp_XYQHikerAL",
      "searchable": 1,
      "quickSearch": 1,
      "filterable": 1,
      "ext": "./lib/玩我哥哥.json"
    },
        {
      "key": "csp_XYQHiker_影搜",
      "name": "七星🌟┃搜4K①",
      "type": 3,
      "api": "csp_XYQHiker",
      "searchable": 1,
      "quickSearch": 1,
      "filterable": 1,
      "ext": "./lib/影搜.json"
    },
        {
      "key": "csp_Upyunso",
      "name": "七星🌟┃搜4K②",
      "type": 3,
      "api": "csp_Upyunso",
      "searchable": 1,
      "quickSearch": 1,
      "filterable": 0,
      "ext": "http://127.0.0.1:9978/file/XYQTVBox/alitoken.txt"
    },
    {
      "key": "csp_XYQHikerAL_云盘资源",
      "name": "七星🌟┃搜4K③",
      "type": 3,
      "api": "csp_XYQHikerAL",
      "searchable": 1,
      "quickSearch": 1,
      "filterable": 1,
      "ext": "./lib/云盘资源.json"
    },
    {
      "key": "js_a8音乐",
      "name": "公众号：七星智教",
      "type": 3,
      "api": "./lib/drpy2.min.js",
      "searchable": 1,
      "quickSearch": 1,
      "filterable": 1,
      "ext": "./lib/a8yy.js"
    }
  ],
  "parses": [
   {
      "name": "Json聚合",
      "type": 3,
      "url": "Demo"
    },
    {
      "name": "Web聚合",
      "type": 3,
      "url": "Web"
    },
    {
      "name": "七星1",
      "type": 1,
      "url": "http://119.91.123.253:2345/Api/yun.php?url="
    },
    {
      "name": "七星2",
      "type": 1,
      "url": "http://122.228.84.103:7777/api/?key=rSqUtltpbfk1xsQFjz&url="
    }
  ],
  "flags": [
    "youku",
    "qq",
    "QQ",
    "iqiyi",
    "qiyi",
    "letv",
    "sohu",
    "tudou",
    "pptv",
    "PPTV",
    "mgtv",
    "ltnb",
    "rx",
    "SLYS4k",
    "BYGA",
    "BYGB",
    "luanzi",
    "dxzy",
    "QEYSS",
    "aliyun",
    "AliS",
    "122",
    "chuangying",
    "CL4K",
    "xfyun",
    "wuduzy",
    "wasu",
    "bilibili",
    "renrenmi",
    "xmm",
    "xigua",
    "m1905",
    "funshion",
    "优酷",
    "芒果",
    "腾讯",
    "爱奇艺",
    "奇艺",
    "哔哩哔哩",
    "哔哩",
    "西瓜视频",
    "腾讯视频",
    "奇艺视频",
    "优酷视频",
    "芒果视频",
    "乐视视频",
    "FY",
    "fy",
    "FeiYun",
    "feiyun",
    "飞云"
  ],
  "doh": [
    {
      "name": "Google",
      "url": "https://dns.google/dns-query",
      "ips": [
        "8.8.4.4",
        "8.8.8.8"
      ]
    },
    {
      "name": "Cloudflare",
      "url": "https://cloudflare-dns.com/dns-query",
      "ips": [
        "1.1.1.1",
        "1.0.0.1",
        "2606:4700:4700::1111",
        "2606:4700:4700::1001"
      ]
    },
    {
      "name": "AdGuard",
      "url": "https://dns.adguard.com/dns-query",
      "ips": [
        "94.140.14.140",
        "94.140.14.141"
      ]
    },
    {
      "name": "DNSWatch",
      "url": "https://resolver2.dns.watch/dns-query",
      "ips": [
        "84.200.69.80",
        "84.200.70.40"
      ]
    },
    {
      "name": "Quad9",
      "url": "https://dns.quad9.net/dns-quer",
      "ips": [
        "9.9.9.9",
        "149.112.112.112"
      ]
    }
  ],
  "ijk": [
    {
      "group": "软解码",
      "options": [
        {
          "category": 4,
          "name": "opensles",
          "value": "0"
        },
        {
          "category": 4,
          "name": "overlay-format",
          "value": "842225234"
        },
        {
          "category": 4,
          "name": "framedrop",
          "value": "1"
        },
        {
          "category": 4,
          "name": "soundtouch",
          "value": "1"
        },
        {
          "category": 4,
          "name": "start-on-prepared",
          "value": "1"
        },
        {
          "category": 1,
          "name": "http-detect-range-support",
          "value": "0"
        },
        {
          "category": 1,
          "name": "fflags",
          "value": "fastseek"
        },
        {
          "category": 2,
          "name": "skip_loop_filter",
          "value": "48"
        },
        {
          "category": 4,
          "name": "reconnect",
          "value": "1"
        },
        {
          "category": 4,
          "name": "enable-accurate-seek",
          "value": "0"
        },
        {
          "category": 4,
          "name": "mediacodec",
          "value": "0"
        },
        {
          "category": 4,
          "name": "mediacodec-auto-rotate",
          "value": "0"
        },
        {
          "category": 4,
          "name": "mediacodec-handle-resolution-change",
          "value": "0"
        },
        {
          "category": 4,
          "name": "mediacodec-hevc",
          "value": "0"
        },
        {
          "category": 1,
          "name": "dns_cache_timeout",
          "value": "600000000"
        }
      ]
    },
    {
      "group": "硬解码",
      "options": [
        {
          "category": 4,
          "name": "opensles",
          "value": "0"
        },
        {
          "category": 4,
          "name": "overlay-format",
          "value": "842225234"
        },
        {
          "category": 4,
          "name": "framedrop",
          "value": "1"
        },
        {
          "category": 4,
          "name": "soundtouch",
          "value": "1"
        },
        {
          "category": 4,
          "name": "start-on-prepared",
          "value": "1"
        },
        {
          "category": 1,
          "name": "http-detect-range-support",
          "value": "0"
        },
        {
          "category": 1,
          "name": "fflags",
          "value": "fastseek"
        },
        {
          "category": 2,
          "name": "skip_loop_filter",
          "value": "48"
        },
        {
          "category": 4,
          "name": "reconnect",
          "value": "1"
        },
        {
          "category": 4,
          "name": "enable-accurate-seek",
          "value": "0"
        },
        {
          "category": 4,
          "name": "mediacodec",
          "value": "1"
        },
        {
          "category": 4,
          "name": "mediacodec-auto-rotate",
          "value": "1"
        },
        {
          "category": 4,
          "name": "mediacodec-handle-resolution-change",
          "value": "1"
        },
        {
          "category": 4,
          "name": "mediacodec-hevc",
          "value": "1"
        },
        {
          "category": 1,
          "name": "dns_cache_timeout",
          "value": "600000000"
        }
      ]
    }
  ],
  "ads": [
    "mimg.0c1q0l.cn",
    "www.googletagmanager.com",
    "www.google-analytics.com",
    "mc.usihnbcq.cn",
    "mg.g1mm3d.cn",
    "mscs.svaeuzh.cn",
    "cnzz.hhttm.top",
    "tp.vinuxhome.com",
    "cnzz.mmstat.com",
    "www.baihuillq.com",
    "s23.cnzz.com",
    "z3.cnzz.com",
    "c.cnzz.com",
    "stj.v1vo.top",
    "z12.cnzz.com",
    "img.mosflower.cn",
    "tips.gamevvip.com",
    "ehwe.yhdtns.com",
    "xdn.cqqc3.com",
    "www.jixunkyy.cn",
    "sp.chemacid.cn",
    "hm.baidu.com",
    "s9.cnzz.com",
    "z6.cnzz.com",
    "um.cavuc.com",
    "mav.mavuz.com",
    "wofwk.aoidf3.com",
    "z5.cnzz.com",
    "xc.hubeijieshikj.cn",
    "tj.tianwenhu.com",
    "xg.gars57.cn",
    "k.jinxiuzhilv.com",
    "cdn.bootcss.com",
    "ppl.xunzhuo123.com",
    "xomk.jiangjunmh.top",
    "img.xunzhuo123.com",
    "z1.cnzz.com",
    "s13.cnzz.com",
    "xg.huataisangao.cn",
    "z7.cnzz.com",
    "xg.huataisangao.cn",
    "z2.cnzz.com",
    "s96.cnzz.com",
    "q11.cnzz.com",
    "thy.dacedsfa.cn",
    "xg.whsbpw.cn",
    "s19.cnzz.com",
    "z8.cnzz.com",
    "s4.cnzz.com",
    "f5w.as12df.top",
    "ae01.alicdn.com",
    "www.92424.cn",
    "k.wudejia.com",
    "vivovip.mmszxc.top",
    "qiu.xixiqiu.com",
    "cdnjs.hnfenxun.com",
    "cms.qdwght.com",
    "iqiyi.hbuioo.com",
    "vip.ffzyad.com",
    "wan.51img1.com",
    "https://lf1-cdn-tos.bytegoofy.com/obj/tos-cn-i-dy/455ccf9e8ae744378118e4bd289288dd",
    "mimg.0c1q0l.cn",
    "www.googletagmanager.com",
    "www.google-analytics.com",
    "mc.usihnbcq.cn",
    "mg.g1mm3d.cn",
    "mscs.svaeuzh.cn",
    "cnzz.hhttm.top",
    "tp.vinuxhome.com",
    "cnzz.mmstat.com",
    "www.baihuillq.com",
    "s23.cnzz.com",
    "z3.cnzz.com",
    "c.cnzz.com",
    "stj.v1vo.top",
    "z12.cnzz.com",
    "img.mosflower.cn",
    "tips.gamevvip.com",
    "ehwe.yhdtns.com",
    "xdn.cqqc3.com",
    "www.jixunkyy.cn",
    "sp.chemacid.cn",
    "hm.baidu.com",
    "s9.cnzz.com",
    "z6.cnzz.com",
    "um.cavuc.com",
    "mav.mavuz.com",
    "wofwk.aoidf3.com",
    "z5.cnzz.com",
    "xc.hubeijieshikj.cn",
    "tj.tianwenhu.com",
    "xg.gars57.cn",
    "k.jinxiuzhilv.com",
    "cdn.bootcss.com",
    "ppl.xunzhuo123.com",
    "xomk.jiangjunmh.top",
    "img.xunzhuo123.com",
    "z1.cnzz.com",
    "s13.cnzz.com",
    "xg.huataisangao.cn",
    "z7.cnzz.com",
    "xg.huataisangao.cn",
    "z2.cnzz.com",
    "s96.cnzz.com",
    "q11.cnzz.com",
    "thy.dacedsfa.cn",
    "xg.whsbpw.cn",
    "s19.cnzz.com",
    "z8.cnzz.com",
    "s4.cnzz.com",
    "f5w.as12df.top",
    "ae01.alicdn.com",
    "www.92424.cn",
    "k.wudejia.com",
    "vivovip.mmszxc.top",
    "qiu.xixiqiu.com",
    "cdnjs.hnfenxun.com",
    "cms.qdwght.com"
  ],
  "rules": [
    {
      "name": "量子广告",
      "hosts": [
        "vip.lz",
        "hd.lz",
        ".cdnlz",
        ".cdnlz*"
      ],
      "regex": [
        "#EXTINF.*?\\s+[a-z0-9]{18}\\.ts",
        "[a-z0-9]{18}\\.ts\\s+",
        "#EXT-X-DISCONTINUITY\\r*\\n*#EXTINF.*?\\s+[a-z0-9]{18}\\.ts[\\s\\S]*?#EXT-X-DISCONTINUITY"
      ]
    },
    {
      "name": "非凡广告",
      "hosts": [
        "vip.ffzy",
        "hd.ffzy",
        ".ffzy*"
      ],
      "regex": [
        "#EXT-X-DISCONTINUITY\\r*\\n*#EXTINF.*?\\s+[0-9]{11}[1-9]{2}.*?\\.ts[\\s\\S]*?#EXT-X-DISCONTINUITY",
        "#EXT-X-DISCONTINUITY\\r*\\n*#EXTINF:5.033333,[\\s\\S]*?#EXT-X-DISCONTINUITY\\r*\\n*#EXTINF:3.960000",
        "#EXTINF.*?\\s+.*?1171.*?\\.ts\\s+"
      ]
    },
    {
      "name": "qihubf",
      "hosts": [
        "qihubf"
      ],
      "regex": [
        "#EXT-X-DISCONTINUITY\\r*\\n*#EXT-X-KEY:METHOD=NONE\\r*\\n*#EXTINF:2,[\\s\\S]*?#EXT-X-DISCONTINUITY\\r*\\n*#EXT-X-KEY:METHOD=AES-128",
        "#EXT-X-DISCONTINUITY\\r*\\n*#EXT-X-KEY:METHOD=NONE\\r*\\n*#EXTINF:2,[\\s\\S]*?#EXT-X-DISCONTINUITY"
      ]
    }
  ],
  "code": 200,
  "success": 1,
  "msg": "自动拉取数据成功!",
  "function": "Python3.7.9"
}